[gd_resource type="Environment" load_steps=2 format=2]

[sub_resource type="ProceduralSky" id=1]
radiance_size = 3
sky_top_color = Color( 0.364706, 0.439216, 0.611765, 1 )
sky_horizon_color = Color( 0.52549, 0.74902, 0.945098, 1 )
sky_curve = 0.173868
sky_energy = 0.7
ground_bottom_color = Color( 0.52549, 0.74902, 0.945098, 1 )
ground_horizon_color = Color( 0.52549, 0.74902, 0.945098, 1 )
ground_curve = 0.259922
sun_color = Color( 0.992157, 0.984314, 0.92549, 1 )
sun_latitude = 54.5
sun_longitude = 15.0
sun_angle_min = 14.01
sun_angle_max = 30.0
sun_curve = 0.34822
sun_energy = 33.86

[resource]
background_mode = 4
background_sky = SubResource( 1 )
background_color = Color( 0.992157, 0.960784, 0.643137, 1 )
background_energy = 1.4
ambient_light_color = Color( 0.952941, 0.952941, 0.952941, 1 )
ambient_light_energy = 1.15
ambient_light_sky_contribution = 0.5
tonemap_mode = 3
tonemap_white = 8.0
auto_exposure_enabled = true
ssao_quality = 0
ssao_blur = 2
